[
  {
    "Author": "anonymous",
    "Name": "Special Snowflakes",
    "InternalName": "SpecialSnowflakes",
    "AssemblyVersion": "1.0.1.0",
    "Description": "Load different heights per character, play as a different height.",
    "ApplicableVersion": "any",
    "Tags": [
      "plugin"
    ],
    "DalamudApiLevel": 8,
    "LoadRequiredState": 0,
    "LoadSync": false,
    "LoadPriority": 0,
    "Punchline": "Load different heights per character, play as a different height.",
    "AcceptsFeedback": true,
    "DownloadLinkInstall": "https://gitlab.com/y2_ss/special-snowflakes/-/raw/main/latest.zip",
    "DownloadLinkTesting": "https://gitlab.com/y2_ss/special-snowflakes/-/raw/main/latest.zip",
    "DownloadLinkUpdate": "https://gitlab.com/y2_ss/special-snowflakes/-/raw/main/latest.zip",
    "IsHide": "False",
    "IsTestingExclusive": "False",
    "DownloadCount": "0"
  },
  {
    "Author": "anonymous",
    "Name": "Special Snowflakes Legacy",
    "InternalName": "SpecialSnowflakes",
    "AssemblyVersion": "0.0.0.13",
    "Description": "Use this to try to recover your character list settings before the rework.",
    "ApplicableVersion": "any",
    "Tags": [
      "plugin"
    ],
    "DalamudApiLevel": 8,
    "LoadRequiredState": 0,
    "LoadSync": false,
    "LoadPriority": 0,
    "Punchline": "Load different heights per character, play as a different height.",
    "AcceptsFeedback": true,
    "DownloadLinkInstall": "https://gitlab.com/y2_ss/special-snowflakes/-/raw/main/legacy.zip",
    "DownloadLinkTesting": "https://gitlab.com/y2_ss/special-snowflakes/-/raw/main/legacy.zip",
    "DownloadLinkUpdate": "https://gitlab.com/y2_ss/special-snowflakes/-/raw/main/legacy.zip",
    "IsHide": "False",
    "IsTestingExclusive": "False",
    "DownloadCount": "0"
  }
]
